{
    "translation": {
        "register_init_apple": {
            "correo": "Correo electrónico",
            "contrasena": "Contraseña",
            "entrar": "Entrar",
            "conectarse_con": "Continuar con",
            "registrarse": "¿No tienes cuenta?",
            "registrate": "¡Registrate!"
        },
        "registro": {
            "nombre": "Nombre",
            "correo": "Correo electrónico",
            "contrasena": "Contraseña",
            "repetir_pass": "Confirmar contraseña",
            "siguiente": "Siguiente",
            "ya_tienes_cuenta": "¿Ya tienes cuenta?",
            "inicia": "inicia sesión"
        },
        "reset": {
            "correo": "Correo electrónico",
            "contrasena": "Contraseña",
            "msj": "Enter your email to reset your password",
            "resetear": "Reset",
            "regresar": "Back to",
            "login": "login",
            "olvidar_pass": "Forgot password?"
        },
        "telefono": {
            "msj": "¡Añade a tus amigos y disfruta",
            "msj2": "de la aventura!",
            "telefono": "Número de teléfono",
            "cod": "Introduce el código",
            "obtener_cod": "Obtener código",
            "reenviar": "Reenviar",
            "siguiente": "Siguiente"
        },
        "foto_perfil": {
            "nombre": "Nombre de usuario",
            "fecha": "Fecha de nacimiento",
            "entrar": "Entrar",
            "siguiente": "Siguiente",
            "msj": "Al entrar, acepto",
            "msj2": "Términos y condiciones",
            "msj3": "condiciones de uso",
            "foto": "Foto de perfil"
        },
        "mapa": {
            "unirme": "Unirme",
            "solicitud": "Solicitud Unirme",
            "activo": "Activado"
        },
        "perfil": {
            "perfil": "Perfil",
            "amigos": "amigos",
            "sugerencias": "Sugerencias",
            "amigos_comun": "Amigos en común",
            "camara": "Camara",
            "cancelar": "Cancelar",
            "libreria": "Libreria",
            "msj3": "Problemas al actualizar, vuelva a intentar",
            "msj4": "Seleccionar Imagen",
            "msj5": "Indique de donde desea seleccionar la imagen",
            "parmiso_camara": "Permiso de camara",
            "acceso": "Se necesita acceder a la camara para tomar fotos",
            "preguntar_luego": "Preguntarme luego",
            "buscar": "Buscar...",
            "aceptar": "Aceptar",
            "permitir": "Permitir",
            "foto_perfil": "Sube tu foto de perfil",
            "perfil_publico": "ver mi perfil público",
            "nombre": "Nombre de usuario *",
            "email": "Email *",
            "telefono": "Teléfono",
            "fecha": "Fecha de nacimiento *",
            "ubicacion": "Ubicación Aproximada",
            "idioma": "Idioma *",
            "seleccione_idioma": "Seleccione un idioma",
            "bio": "Sobre mi",
            "guardar": "Guardar",
            "guardando": "Guardando",
            "ubi_invalida": "Ubicación Inválida"
        },
        "perfil_ajeno": {
            "amigos_comun": "amigos en común",
            "add": "Agregar",
            "cuenta_privada": "Esta cuenta es privada",
            "sugerencias": "Sugerencias"
        },
        "solicitud": {
            "solicitud_amistad": "Solicitudes de amistad",
            "solicitud": "Solicitud"
        },
        "amigos_comun": {
            "titulo": "Amigos en común",
            "amigos_comun": "amigos en común"
        },
        "list_amigos": {
            "solicitud": "Solicitudes",
            "aceptar": "Aceptar",
            "amigos": "Amigos"
        },
        "ajuste": {
            "cambiar_pass": "Cambiar contraseña",
            "password": "Contraseña",
            "confirmar": "Confirmación",
            "actualizar": "Actualizar",
            "edit_info": "Editar información",
            "nombre": "Nombre",
            "apellido": "Apellido",
            "idioma": "Seleccionar idioma",
            "espanol": "Español",
            "Ingles": "Ingles",
            "cuenta": "Cuenta verificada",
            "aviso": "Aviso Legal",
            "datos": "Tratamiento de datos",
            "permiso": "Permisos",
            "notificaciones": "Notificaciones",
            "soporte": "Soporte",
            "salir": "Salir"
        },
        "notificaciones": {
            "notificaciones": "ACTIVIDAD",
            "cargando": "Cargando",
            "aceptado": "aceptado tu solicitud",
            "ver": "Ver plan",
            "invitacion": "Te ha invitado a su plan",
            "solicitud": "Tienes nuevas solicitudes",
            "zona": "En tu zona",
            "msj_sin_leer": "Tienes un mensaje sin leer"
        },
        "lupa": {
            "buscar": "Buscar",
            "msj": " No se encontraron resultados",
            "amigos_comun": "amigos en común",
            "ningun_amigo": "Ningún amigo en común"
        },
        "invitar": {
            "buscar": "Buscar",
            "add": "Agregar",
            "invitar": "Invitar",
            "tienes": "Tienes",
            "invitaciones": "Invitaciones"
        },
        "plan": {
            "salir": "Salir",
            "plan_abierto": "Plan abierto",
            "plan_cerrado": "Plan cerrado",
            "chat_otros_planes": "Chats con otros planes...",
            "escribe_msj": "Escribir mensaje"
        },
        "chat": {
            "chats": "Mis Chats",
            "grupal": "Chat Grupal",
            "unirse_plan": "se ha unido al plan"
        },
        "participante": {
            "participante": "Participantes",
            "invitar": "Invitar a amigos",
            "admin": "Admin",
            "plan": "personas en el plan",
            "conoce_msj": "Conoce a la gente del lugar, envía",
            "saludo": "Un saludo!"
        },
        "saludo": {
            "actividad_plan": "Actividad del plan",
            "saludo": "Te ha saludado"
        },
        "participante_sin_admin": {
            "participante": "Participantes",
            "asistente": "Asistente",
            "admin": "Admin"
        },
        "flashpoint": {
            "mis_chats": "Mis chats...",
            "msj": "Conoce a la gente del lugar, envía",
            "msj2": "¡Un saludo!",
            "msj3": "se ha entrado a un flashpoint",
            "escribe_msj": "Escribir mensaje"
        },
        "evento": {
            "buscar_plan": "Buscar plan",
            "escribe_pregunta": "Escribe una pregunta",
            "publicar": "PUBLICAR",
            "editar": "Editar",
            "escribe_msj": "Escribir mensaje",
            "eliminar": "Eliminar",
            "archivos_adjunto": "Archivo adjunto",
            "activar": "Activar",
            "buscar": "Buscar",
            "invitacion": "¿A quién invitarás?",
            "amigos": "Amigos",
            "invitaciones": "Invitaciones"
        },
        "carousel": {
            "hace": "Hace",
            "min": "minutos",
            "chat": "Chat",
            "entrada": "Entrada",
            "amigos_comun": "amigos en común"
        },
        "validaciones": {
            "sin_guardar": "no se ha guardado",
            "nombre": "Debe ingresar el nombre",
            "email_valido": "Debe ingresar un email válido",
            "email": "El email es obligatorio",
            "contrasena": "La contraseña es obligatoria",
            "repetir_pass": "Repetir contraseña es obligatoria",
            "repetir_password": "La contraseña y repetir contraseña no coinciden",
            "cod": "Debe indroducir el código",
            "telefono": "Debe ingresar el número de teléfono",
            "usuario_registrado": "Ya existe un usuario registrado con el mismo email",
            "usuario_registrado_mismo_username": "Ya existe un usuario registrado con el mismo username",
            "subir_foto": "Debe subir una foto de perfil",
            "username": "Debe ingresar un nombre de usuario",
            "fecha": "Debe ingresar la fecha de nacimiento",
            "idioma": "El idioma es obligatorio",
            "ubicacion": "La Ubicación es obligatoria",
            "user_pass_incorrecto": "El usuario y/o la contraseña no son correctos",
            "user_no_registrado": "El usuario no esta registrado, debe registrarse primero",
            "enlace_enviado": "Por favor ingrese al enlace enviado a su correo para restaurar su contraseña",
            "email_user_valido": "Por favor asegurese que el email es correcto y que este asociado a un usuario",
            "solicitud_enviada": "Su solicitud se ha enviado con éxito, gracias por comunicarte con nosotros",
            "solicitud_no_enviada": "No pudo ser enviada la solicitud",
            "motivo_consulta": "Motivo de la consulta es obligatorio",
            "enlace_enviado_restaurar": "Por favor ingrese al enlace enviado a su correo para reactivar su usuario",
            "aceptar_terminos": "Debe aceptar los términos y condiciones para poder registrarse",
            "registro_exitoso": "Se ha registrado el usuario exitosamente",
            "error_inesperado": "Ocurrió un Error inesperado, por favor vuelva a intentar",
            "permiso_contacto": "Permiso de contactos",
            "acceso_contacto": "Se necesita acceder a tus contactos",
            "preguntar_luego": "Preguntarme luego",
            "cancelar": "Cancelar",
            "permitir": "Permitir",
            "invitacion_enviada": "Invitación enviada exitosamente",
            "escribe_msj_o_grabar": "Debe escribir una pregunta o grabar un audio",
            "erro_ubicacion": "Error al intentar detectar su ubicación",
            "plan_creado": "¡Plan creado exitosamente!",
            "archivos_subir": "Los archivos a subir tienen que ser menores a"
        },
        "modal_alert": {
            "boton": "Estoy de acuerdo",
            "seguro": "¿Estás seguro?",
            "borrar": "Se borrara de forma permanente",
            "eliminar": "Sí, eliminar",
            "camara": "Camara",
            "cancelar": "Cancelar",
            "libreria": "Libreria"
        },
        "alert_seleccion": {
            "msj": "Indique de donde desea seleccionar la imagen",
            "camara": "Camara",
            "cancelar": "Cancelar",
            "libreria": "Libreria"
        },
        "stack": {
            "editar": "Editar",
            "eliminar": "Eliminar",
            "amigos_comun": "Amigos en común",
            "participante": "Participantes",
            "abierto": "Abierto",
            "entrar": "Entrar",
            "plan": "Plan de",
            "mas": "personas mas"
        },
        "busqueda": {
            "buscar": "Buscar...",
            "cargando": "Cargando",
            "titulo": "¿Cómo podemos ayudarte?"
        },
        "terminos": {
            "terminos": "Términos y condiciones",
            "politicas": "Políticas de privacidad"
        }
    }
}